user@debian:~$ rsync -rlpthi --delete --stats rsync.trisquel.org::trisquel.iso ./trisquel
cd+++++++++ ./
>f+++++++++ md5sum.txt
>f+++++++++ md5sum.txt.asc
>f+++++++++ sha1sum.txt
>f+++++++++ sha1sum.txt.asc
>f+++++++++ sha256sum.txt
>f+++++++++ sha256sum.txt.asc
>f+++++++++ triskel_10.0.1_amd64.iso
>f+++++++++ triskel_10.0.1_amd64.iso.asc
>f+++++++++ triskel_10.0.1_amd64.iso.manifest
>f+++++++++ triskel_10.0.1_amd64.iso.md5
>f+++++++++ triskel_10.0.1_amd64.iso.sha1
>f+++++++++ triskel_10.0.1_amd64.iso.sha256
>f+++++++++ triskel_10.0.1_amd64.iso.torrent
>f+++++++++ triskel_11.0_amd64.iso
>f+++++++++ triskel_11.0_amd64.iso.asc
>f+++++++++ triskel_11.0_amd64.iso.manifest
>f+++++++++ triskel_11.0_amd64.iso.md5
>f+++++++++ triskel_11.0_amd64.iso.sha1
>f+++++++++ triskel_11.0_amd64.iso.sha256
>f+++++++++ triskel_11.0_amd64.iso.torrent
cL+++++++++ trisquel-archive-signkey.gpg -> /home/archive/trisquel/trisquel-archive-signkey.gpg
>f+++++++++ trisquel-base_10.0.1_armhf.tar.bz2
>f+++++++++ trisquel-base_10.0.1_armhf.tar.bz2.asc
>f+++++++++ trisquel-base_10.0.1_armhf.tar.bz2.manifest
>f+++++++++ trisquel-base_10.0.1_armhf.tar.bz2.md5
>f+++++++++ trisquel-base_10.0.1_armhf.tar.bz2.sha1
>f+++++++++ trisquel-base_10.0.1_armhf.tar.bz2.sha256
>f+++++++++ trisquel-base_10.0.1_armhf.tar.bz2.torrent
>f+++++++++ trisquel-base_11.0_arm64.tar.bz2
>f+++++++++ trisquel-base_11.0_arm64.tar.bz2.asc
>f+++++++++ trisquel-base_11.0_arm64.tar.bz2.manifest
>f+++++++++ trisquel-base_11.0_arm64.tar.bz2.md5
>f+++++++++ trisquel-base_11.0_arm64.tar.bz2.sha1
>f+++++++++ trisquel-base_11.0_arm64.tar.bz2.sha256
>f+++++++++ trisquel-base_11.0_arm64.tar.bz2.torrent
>f+++++++++ trisquel-base_11.0_armhf.tar.bz2
>f+++++++++ trisquel-base_11.0_armhf.tar.bz2.asc
>f+++++++++ trisquel-base_11.0_armhf.tar.bz2.manifest
>f+++++++++ trisquel-base_11.0_armhf.tar.bz2.md5
>f+++++++++ trisquel-base_11.0_armhf.tar.bz2.sha1
>f+++++++++ trisquel-base_11.0_armhf.tar.bz2.sha256
>f+++++++++ trisquel-base_11.0_armhf.tar.bz2.torrent
>f+++++++++ trisquel-base_11.0_ppc64el.tar.bz2
>f+++++++++ trisquel-base_11.0_ppc64el.tar.bz2.asc
>f+++++++++ trisquel-base_11.0_ppc64el.tar.bz2.manifest
>f+++++++++ trisquel-base_11.0_ppc64el.tar.bz2.md5
>f+++++++++ trisquel-base_11.0_ppc64el.tar.bz2.sha1
>f+++++++++ trisquel-base_11.0_ppc64el.tar.bz2.sha256
>f+++++++++ trisquel-base_11.0_ppc64el.tar.bz2.torrent
>f+++++++++ trisquel-mini_10.0.1_amd64.iso
>f+++++++++ trisquel-mini_10.0.1_amd64.iso.asc
>f+++++++++ trisquel-mini_10.0.1_amd64.iso.manifest
>f+++++++++ trisquel-mini_10.0.1_amd64.iso.md5
>f+++++++++ trisquel-mini_10.0.1_amd64.iso.sha1
>f+++++++++ trisquel-mini_10.0.1_amd64.iso.sha256
>f+++++++++ trisquel-mini_10.0.1_amd64.iso.torrent
>f+++++++++ trisquel-mini_11.0_amd64.iso
>f+++++++++ trisquel-mini_11.0_amd64.iso.asc
>f+++++++++ trisquel-mini_11.0_amd64.iso.manifest
>f+++++++++ trisquel-mini_11.0_amd64.iso.md5
>f+++++++++ trisquel-mini_11.0_amd64.iso.sha1
>f+++++++++ trisquel-mini_11.0_amd64.iso.sha256
>f+++++++++ trisquel-mini_11.0_amd64.iso.torrent
>f+++++++++ trisquel-netinst_10.0.1_amd64.iso
>f+++++++++ trisquel-netinst_10.0.1_amd64.iso.asc
>f+++++++++ trisquel-netinst_10.0.1_amd64.iso.md5
>f+++++++++ trisquel-netinst_10.0.1_amd64.iso.sha1
>f+++++++++ trisquel-netinst_10.0.1_amd64.iso.sha256
>f+++++++++ trisquel-netinst_10.0.1_amd64.iso.torrent
>f+++++++++ trisquel-netinst_11.0_amd64.iso
>f+++++++++ trisquel-netinst_11.0_amd64.iso.asc
>f+++++++++ trisquel-netinst_11.0_amd64.iso.md5
>f+++++++++ trisquel-netinst_11.0_amd64.iso.sha1
>f+++++++++ trisquel-netinst_11.0_amd64.iso.sha256
>f+++++++++ trisquel-netinst_11.0_amd64.iso.torrent
>f+++++++++ trisquel-sugar_10.0.1_amd64.iso
>f+++++++++ trisquel-sugar_10.0.1_amd64.iso.asc
>f+++++++++ trisquel-sugar_10.0.1_amd64.iso.manifest
>f+++++++++ trisquel-sugar_10.0.1_amd64.iso.md5
>f+++++++++ trisquel-sugar_10.0.1_amd64.iso.sha1
>f+++++++++ trisquel-sugar_10.0.1_amd64.iso.sha256
>f+++++++++ trisquel-sugar_10.0.1_amd64.iso.torrent
>f+++++++++ trisquel-sugar_11.0_amd64.iso
>f+++++++++ trisquel-sugar_11.0_amd64.iso.asc
>f+++++++++ trisquel-sugar_11.0_amd64.iso.manifest
>f+++++++++ trisquel-sugar_11.0_amd64.iso.md5
>f+++++++++ trisquel-sugar_11.0_amd64.iso.sha1
>f+++++++++ trisquel-sugar_11.0_amd64.iso.sha256
>f+++++++++ trisquel-sugar_11.0_amd64.iso.torrent
>f+++++++++ trisquel_10.0.1_amd64.iso
>f+++++++++ trisquel_10.0.1_amd64.iso.asc
>f+++++++++ trisquel_10.0.1_amd64.iso.manifest
>f+++++++++ trisquel_10.0.1_amd64.iso.md5
>f+++++++++ trisquel_10.0.1_amd64.iso.sha1
>f+++++++++ trisquel_10.0.1_amd64.iso.sha256
>f+++++++++ trisquel_10.0.1_amd64.iso.torrent
>f+++++++++ trisquel_10.0.1_sources.iso
>f+++++++++ trisquel_10.0.1_sources.iso.asc
>f+++++++++ trisquel_10.0.1_sources.iso.md5
>f+++++++++ trisquel_10.0.1_sources.iso.sha1
>f+++++++++ trisquel_10.0.1_sources.iso.sha256
>f+++++++++ trisquel_10.0.1_sources.iso.torrent
>f+++++++++ trisquel_11.0_amd64.iso
>f+++++++++ trisquel_11.0_amd64.iso.asc
>f+++++++++ trisquel_11.0_amd64.iso.manifest
>f+++++++++ trisquel_11.0_amd64.iso.md5
>f+++++++++ trisquel_11.0_amd64.iso.sha1
>f+++++++++ trisquel_11.0_amd64.iso.sha256
>f+++++++++ trisquel_11.0_amd64.iso.torrent
>f+++++++++ trisquel_11.0_sources.tar
>f+++++++++ trisquel_11.0_sources.tar.asc
>f+++++++++ trisquel_11.0_sources.tar.manifest
>f+++++++++ trisquel_11.0_sources.tar.md5
>f+++++++++ trisquel_11.0_sources.tar.sha1
>f+++++++++ trisquel_11.0_sources.tar.sha256
>f+++++++++ trisquel_11.0_sources.tar.torrent

Number of files: 117 (reg: 115, dir: 1, link: 1)
Number of created files: 117 (reg: 115, dir: 1, link: 1)
Number of deleted files: 0
Number of regular files transferred: 115
Total file size: 36.26G bytes
Total transferred file size: 36.26G bytes
Literal data: 36.26G bytes
Matched data: 0 bytes
File list size: 3.00K
File list generation time: 0.001 seconds
File list transfer time: 0.000 seconds
Total bytes sent: 2.36K
Total bytes received: 36.27G

sent 2.36K bytes  received 36.27G bytes  3.36M bytes/sec
total size is 36.26G  speedup is 1.00
user@debian:~$ 
